{
    "relationships": [],
    "fields": [
        {
            "fieldId": 1,
            "fieldName": "name",
            "fieldType": "String",
            "fieldNameCapitalized": "Name",
            "fieldNameUnderscored": "name",
            "fieldInJavaBeanMethod": "Name",
            "fieldValidate": true,
            "fieldValidateRules": [
                "required"
            ]
        },
        {
            "fieldId": 2,
            "fieldName": "url",
            "fieldType": "String",
            "fieldNameCapitalized": "Url",
            "fieldNameUnderscored": "url",
            "fieldInJavaBeanMethod": "Url",
            "fieldValidate": true,
            "fieldValidateRules": [
                "required"
            ]
        },
        {
            "fieldId": 3,
            "fieldName": "creation_date",
            "fieldType": "DateTime",
            "fieldNameCapitalized": "Creation_date",
            "fieldNameUnderscored": "creation_date",
            "fieldInJavaBeanMethod": "Creation_date",
            "fieldValidate": true,
            "fieldValidateRules": [
                "required"
            ]
        },
        {
            "fieldId": 4,
            "fieldName": "user_id",
            "fieldType": "Integer",
            "fieldNameCapitalized": "User_id",
            "fieldNameUnderscored": "user_id",
            "fieldInJavaBeanMethod": "User_id",
            "fieldValidate": true,
            "fieldValidateRules": [
                "required"
            ]
        },
        {
            "fieldId": 5,
            "fieldName": "team_id",
            "fieldType": "Integer",
            "fieldNameCapitalized": "Team_id",
            "fieldNameUnderscored": "team_id",
            "fieldInJavaBeanMethod": "Team_id",
            "fieldValidate": true,
            "fieldValidateRules": [
                "required"
            ]
        }
    ],
    "fieldsContainOwnerManyToMany": false,
    "fieldsContainOwnerOneToOne": false,
    "fieldsContainOneToMany": false,
    "fieldsContainLocalDate": false,
    "fieldsContainCustomTime": false,
    "fieldsContainBigDecimal": false,
    "fieldsContainDateTime": false,
    "fieldsContainDate": false,
    "dto": "no",
    "pagination": "infinite-scroll",
    "validation": true
}
